TFLIPFLOP/simulation/qsim/tfliflop.msim.vcd
$comment
	File created using the following command:
		vcd file tfliflop.msim.vcd -direction
$end
$date
	Tue Oct 28 09:56:33 2025
$end
$version
	ModelSim Version 10.1d
$end
$timescale
	1ps
$end
$scope module tfliflop_vlg_vec_tst $end
$var reg 1 ! clk $end
$var reg 1 " t $end
$var wire 1 # q $end
$var wire 1 $ qbar $end
$var wire 1 % sampler $end
$scope module i1 $end
$var wire 1 & gnd $end
$var wire 1 ' vcc $end
$var wire 1 ( unknown $end
$var tri1 1 ) devclrn $end
$var tri1 1 * devpor $end
$var tri1 1 + devoe $end
$var wire 1 , q~output_o $end
$var wire 1 - qbar~output_o $end
$var wire 1 . clk~input_o $end
$var wire 1 / t~input_o $end
$var wire 1 0 q~0_combout $end
$var wire 1 1 q~reg0_q $end
$upscope $end
$upscope $end
$enddefinitions $end
#0
$dumpvars
1!
1"
x#
x$
x%
0&
1'
x(
1)
1*
1+
x,
x-
1.
1/
x0
01
$end
#3514
1-
1$
#3524
0,
0#
#3665
10
#180000
0"
0%
#180727
0/
#184634
00
#200000
0!
1%
#200727
0.
#220000
1"
0%
#220597
1/
#224262
10
#240000
1!
1%
#240597
1.
#242714
11
#243158
00
#246318
0-
0$
#246328
1,
1#
#260000
0"
0%
#260727
0/
#264648
10
#280000
0!
1%
#280727
0.
#300000
1"
0%
#300597
1/
#304248
00
#320000
1!
1%
#320597
1.
#322714
01
#323134
10
#326228
1-
1$
#326238
0,
0#
#340000
0"
0%
#340727
0/
#344634
00
#360000
0!
1%
#360727
0.
#380000
1"
0%
#380597
1/
#384262
10
#400000
1!
1%
#400597
1.
#402714
11
#403158
00
#406318
0-
0$
#406328
1,
1#
#420000
0"
0%
#420727
0/
#424648
10
#440000
0!
1%
#440727
0.
#460000
1"
0%
#460597
1/
#464248
00
#470000
1!
1%
#470597
1.
#472714
01
#473134
10
#476228
1-
1$
#476238
0,
0#
#500000
0"
0%
#500727
0/
#504634
00
#530000
1"
1%
#530597
1/
#534262
10
#600000
0!
0%
#600727
0.
#640000
1!
1%
#640597
1.
#642714
11
#643158
00
#646318
0-
0$
#646328
1,
1#
#650000
0"
0%
#650727
0/
#654648
10
#670000
1"
1%
#670597
1/
#674248
00
#680000
0!
0%
#680727
0.
#690000
0"
1%
#690727
0/
#694648
10
#710000
1"
0%
#710597
1/
#714248
00
#720000
1!
1%
#720597
1.
#722714
01
#723134
10
#726228
1-
1$
#726238
0,
0#
#730000
0"
0%
#730727
0/
#734634
00
#750000
1"
1%
#750597
1/
#754262
10
#760000
0!
0%
#760727
0.
#770000
0"
1%
#770727
0/
#774634
00
#790000
1"
0%
#790597
1/
#794262
10
#800000
1!
1%
#800597
1.
#802714
11
#803158
00
#806318
0-
0$
#806328
1,
1#
#810000
0"
0%
#810727
0/
#814648
10
#830000
1"
1%
#830597
1/
#834248
00
#840000
0!
0%
#840727
0.
#850000
0"
1%
#850727
0/
#854648
10
#870000
1"
0%
#870597
1/
#874248
00
#880000
1!
1%
#880597
1.
#882714
01
#883134
10
#886228
1-
1$
#886238
0,
0#
#890000
0"
0%
#890727
0/
#894634
00
#910000
1"
1%
#910597
1/
#914262
10
#930000
0"
0%
#930727
0/
#934634
00
#950000
1"
1%
#950597
1/
#954262
10
